^D:\DIPLOMA\TEST_REPOS\PCH.CPP
/c /I"D:\DIPLOMA\TEST_REPOS\PACKAGES\MICROSOFT.GOOGLETEST.V140.WINDESKTOP.MSVCSTL.STATIC.RT-DYN.1.8.1.7\BUILD\NATIVE\INCLUDE" /Zi /nologo /W3 /WX- /diagnostics:column /Od /D X64 /D _DEBUG /D _CONSOLE /D _UNICODE /D UNICODE /Gm- /EHsc /RTC1 /MDd /GS /fp:precise /Zc:wchar_t /Zc:forScope /Zc:inline /Yc"pch.h" /Fp"X64\DEBUG\TEST_REPOS.PCH" /Fo"X64\DEBUG\\" /Fd"X64\DEBUG\VC143.PDB" /external:W3 /Gd /TP /FC D:\DIPLOMA\TEST_REPOS\PCH.CPP
^D:\DIPLOMA\TEST_REPOS\TEST.CPP
/c /I"D:\DIPLOMA\TEST_REPOS\PACKAGES\MICROSOFT.GOOGLETEST.V140.WINDESKTOP.MSVCSTL.STATIC.RT-DYN.1.8.1.7\BUILD\NATIVE\INCLUDE" /Zi /nologo /W3 /WX- /diagnostics:column /Od /D X64 /D _DEBUG /D _CONSOLE /D _UNICODE /D UNICODE /Gm- /EHsc /RTC1 /MDd /GS /fp:precise /Zc:wchar_t /Zc:forScope /Zc:inline /Yu"pch.h" /Fp"X64\DEBUG\TEST_REPOS.PCH" /Fo"X64\DEBUG\\" /Fd"X64\DEBUG\VC143.PDB" /external:W3 /Gd /TP /FC D:\DIPLOMA\TEST_REPOS\TEST.CPP
^E:\LABWORKS\VS_MKR_TEST1\PCH.CPP
/c /I"E:\LABWORKS\VS_MKR_TEST1\PACKAGES\MICROSOFT.GOOGLETEST.V140.WINDESKTOP.MSVCSTL.STATIC.RT-DYN.1.8.1.7\BUILD\NATIVE\INCLUDE" /Zi /nologo /W3 /WX- /diagnostics:column /Od /D X64 /D _DEBUG /D _CONSOLE /D _UNICODE /D UNICODE /Gm- /EHsc /RTC1 /MDd /GS /fp:precise /Zc:wchar_t /Zc:forScope /Zc:inline /Yc"pch.h" /Fp"X64\DEBUG\TEST_REPOS.PCH" /Fo"X64\DEBUG\\" /Fd"X64\DEBUG\VC143.PDB" /external:W3 /Gd /TP /FC E:\LABWORKS\VS_MKR_TEST1\PCH.CPP
^E:\LABWORKS\VS_MKR_TEST1\TEST.CPP
/c /I"E:\LABWORKS\VS_MKR_TEST1\PACKAGES\MICROSOFT.GOOGLETEST.V140.WINDESKTOP.MSVCSTL.STATIC.RT-DYN.1.8.1.7\BUILD\NATIVE\INCLUDE" /Zi /nologo /W3 /WX- /diagnostics:column /Od /D X64 /D _DEBUG /D _CONSOLE /D _UNICODE /D UNICODE /Gm- /EHsc /RTC1 /MDd /GS /fp:precise /Zc:wchar_t /Zc:forScope /Zc:inline /Yu"pch.h" /Fp"X64\DEBUG\TEST_REPOS.PCH" /Fo"X64\DEBUG\\" /Fd"X64\DEBUG\VC143.PDB" /external:W3 /Gd /TP /FC E:\LABWORKS\VS_MKR_TEST1\TEST.CPP
